<svg id="Group_102" data-name="Group 102" xmlns="http://www.w3.org/2000/svg" width="30" height="40.829" viewBox="0 0 30 40.829">
  <path id="Path_14646" data-name="Path 14646" d="M367.385,149.851a15,15,0,0,1,3.085,20.988l-12.551,16.876-11.813-17.284a15,15,0,0,1,21.28-20.581Z" transform="translate(-343.435 -146.886)" fill="#a53a24"/>
</svg>
