<svg xmlns="http://www.w3.org/2000/svg" width="8.635" height="11.633" viewBox="0 0 8.635 11.633">
  <g id="Group_11" data-name="Group 11" transform="translate(432.037 -444.726) rotate(90)">
    <line id="Line_6" data-name="Line 6" y2="8.191" transform="translate(450.543 423.846)" fill="none" stroke-miterlimit="10" stroke-width="0.667"/>
    <path id="Path_34" data-name="Path 34" d="M456.139,428.772l-5.6-4.926-5.6,4.926" transform="translate(0 0)" fill="none" stroke-miterlimit="10" stroke-width="0.667"/>
  </g>
</svg>
