{
    "key": "group_5d96918754682",
    "title": "Sections",
    "fields": [
        {
            "key": "field_5d9691933bd59",
            "label": "Sections",
            "name": "sections",
            "type": "flexible_content",
            "instructions": "",
            "required": 0,
            "conditional_logic": 0,
            "wrapper": {
                "width": "",
                "class": "",
                "id": ""
            },
            "layouts": {
                "layout_5dc5b62b97937": {
                    "key": "layout_5dc5b62b97937",
                    "name": "image_carousel",
                    "label": "Image Carousel",
                    "display": "block",
                    "sub_fields": [
                        {
                            "key": "field_5dc871ac166f1",
                            "label": "Gallery",
                            "name": "gallery",
                            "type": "repeater",
                            "instructions": "",
                            "required": 0,
                            "conditional_logic": 0,
                            "wrapper": {
                                "width": "",
                                "class": "",
                                "id": ""
                            },
                            "collapsed": "",
                            "min": 1,
                            "max": 10,
                            "layout": "table",
                            "button_label": "+ Add Image",
                            "sub_fields": [
                                {
                                    "key": "field_5df28273ad093",
                                    "label": "Image",
                                    "name": "image",
                                    "type": "image",
                                    "instructions": "",
                                    "required": 0,
                                    "conditional_logic": 0,
                                    "wrapper": {
                                        "width": "",
                                        "class": "",
                                        "id": ""
                                    },
                                    "return_format": "array",
                                    "preview_size": "medium",
                                    "library": "all",
                                    "min_width": "",
                                    "min_height": "",
                                    "min_size": "",
                                    "max_width": "",
                                    "max_height": "",
                                    "max_size": "",
                                    "mime_types": ""
                                }
                            ]
                        }
                    ],
                    "min": "",
                    "max": ""
                },
                "layout_5df3cbf788500": {
                    "key": "layout_5df3cbf788500",
                    "name": "contact_block",
                    "label": "Contact Block",
                    "display": "block",
                    "sub_fields": [
                        {
                            "key": "field_5df3cc0088501",
                            "label": "Background Color",
                            "name": "bg_color",
                            "type": "color_picker",
                            "instructions": "",
                            "required": 0,
                            "conditional_logic": 0,
                            "wrapper": {
                                "width": "",
                                "class": "",
                                "id": ""
                            },
                            "default_value": ""
                        },
                        {
                            "key": "field_5df3cc3e88502",
                            "label": "Section Title",
                            "name": "section_title",
                            "type": "text",
                            "instructions": "",
                            "required": 0,
                            "conditional_logic": 0,
                            "wrapper": {
                                "width": "",
                                "class": "",
                                "id": ""
                            },
                            "default_value": "",
                            "placeholder": "",
                            "prepend": "",
                            "append": "",
                            "maxlength": ""
                        },
                        {
                            "key": "field_5df3cc5e88503",
                            "label": "Title",
                            "name": "title",
                            "type": "text",
                            "instructions": "",
                            "required": 0,
                            "conditional_logic": 0,
                            "wrapper": {
                                "width": "",
                                "class": "",
                                "id": ""
                            },
                            "default_value": "",
                            "placeholder": "",
                            "prepend": "",
                            "append": "",
                            "maxlength": ""
                        },
                        {
                            "key": "field_5df3cc6588504",
                            "label": "Copy",
                            "name": "copy",
                            "type": "wysiwyg",
                            "instructions": "",
                            "required": 0,
                            "conditional_logic": 0,
                            "wrapper": {
                                "width": "",
                                "class": "",
                                "id": ""
                            },
                            "default_value": "",
                            "tabs": "all",
                            "toolbar": "full",
                            "media_upload": 1,
                            "delay": 0
                        },
                        {
                            "key": "field_5df3cc7188505",
                            "label": "Form ID",
                            "name": "form_id",
                            "type": "text",
                            "instructions": "",
                            "required": 0,
                            "conditional_logic": 0,
                            "wrapper": {
                                "width": "",
                                "class": "",
                                "id": ""
                            },
                            "default_value": "",
                            "placeholder": "",
                            "prepend": "",
                            "append": "",
                            "maxlength": ""
                        },
                        {
                            "key": "field_5df3cc8888506",
                            "label": "Section Label",
                            "name": "layout_title",
                            "type": "text",
                            "instructions": "",
                            "required": 0,
                            "conditional_logic": 0,
                            "wrapper": {
                                "width": "",
                                "class": "",
                                "id": ""
                            },
                            "default_value": "",
                            "placeholder": "",
                            "prepend": "",
                            "append": "",
                            "maxlength": ""
                        },
                        {
                            "key": "field_5df3cc9f88507",
                            "label": "Section Padding Top",
                            "name": "section_padding_top",
                            "type": "radio",
                            "instructions": "",
                            "required": 0,
                            "conditional_logic": 0,
                            "wrapper": {
                                "width": "50",
                                "class": "",
                                "id": ""
                            },
                            "choices": {
                                "none": "None (0px)",
                                "small": "Small (50px)",
                                "medium": "Medium (100px)",
                                "large": "Large (150px)",
                                "xlarge": "xLarge (200px)",
                                "xxlarge": "xxLarge (250px)"
                            },
                            "allow_null": 0,
                            "other_choice": 0,
                            "default_value": "",
                            "layout": "vertical",
                            "return_format": "value",
                            "save_other_choice": 0
                        },
                        {
                            "key": "field_5df3cce288508",
                            "label": "Section Padding Button",
                            "name": "section_padding_button",
                            "type": "radio",
                            "instructions": "",
                            "required": 0,
                            "conditional_logic": 0,
                            "wrapper": {
                                "width": "50",
                                "class": "",
                                "id": ""
                            },
                            "choices": {
                                "none": "None (0px)",
                                "small": "Small (50px)",
                                "medium": "Medium (100px)",
                                "large": "Large (150px)",
                                "xlarge": "xLarge (200px)",
                                "xxlarge": "xxLarge (250px)"
                            },
                            "allow_null": 0,
                            "other_choice": 0,
                            "default_value": "",
                            "layout": "vertical",
                            "return_format": "value",
                            "save_other_choice": 0
                        }
                    ],
                    "min": "",
                    "max": ""
                },
                "layout_5df3b6d7f6b50": {
                    "key": "layout_5df3b6d7f6b50",
                    "name": "info_block",
                    "label": "Info Block",
                    "display": "block",
                    "sub_fields": [
                        {
                            "key": "field_5df3b6eaf6b51",
                            "label": "Content",
                            "name": "content",
                            "type": "wysiwyg",
                            "instructions": "",
                            "required": 0,
                            "conditional_logic": 0,
                            "wrapper": {
                                "width": "",
                                "class": "",
                                "id": ""
                            },
                            "default_value": "",
                            "tabs": "all",
                            "toolbar": "full",
                            "media_upload": 1,
                            "delay": 0
                        }
                    ],
                    "min": "",
                    "max": ""
                },
                "layout_5df2b6e5be2d1": {
                    "key": "layout_5df2b6e5be2d1",
                    "name": "image_grid",
                    "label": "Image Grid",
                    "display": "block",
                    "sub_fields": [
                        {
                            "key": "field_5df2b6e5be2d2",
                            "label": "Title",
                            "name": "title",
                            "type": "text",
                            "instructions": "",
                            "required": 0,
                            "conditional_logic": 0,
                            "wrapper": {
                                "width": "",
                                "class": "",
                                "id": ""
                            },
                            "default_value": "",
                            "placeholder": "",
                            "prepend": "",
                            "append": "",
                            "maxlength": ""
                        },
                        {
                            "key": "field_5df2b6e5be2d4",
                            "label": "Grid Images",
                            "name": "grid_images",
                            "type": "gallery",
                            "instructions": "",
                            "required": 0,
                            "conditional_logic": 0,
                            "wrapper": {
                                "width": "",
                                "class": "",
                                "id": ""
                            },
                            "return_format": "array",
                            "preview_size": "image-grid",
                            "insert": "append",
                            "library": "all",
                            "min": "",
                            "max": "",
                            "min_width": "",
                            "min_height": "",
                            "min_size": "",
                            "max_width": "",
                            "max_height": "",
                            "max_size": "",
                            "mime_types": ""
                        },
                        {
                            "key": "field_5df2b6e5be2d5",
                            "label": "Section Padding Top",
                            "name": "section_padding_top",
                            "type": "radio",
                            "instructions": "",
                            "required": 0,
                            "conditional_logic": 0,
                            "wrapper": {
                                "width": "50",
                                "class": "",
                                "id": ""
                            },
                            "choices": {
                                "none": "None (0px)",
                                "small": "Small (50px)",
                                "medium": "Medium (100px)",
                                "large": "Large (150px)",
                                "xlarge": "xLarge (200px)",
                                "xxlarge": "xxLarge (250px)"
                            },
                            "allow_null": 0,
                            "other_choice": 1,
                            "save_other_choice": 1,
                            "default_value": "",
                            "layout": "vertical",
                            "return_format": "value"
                        },
                        {
                            "key": "field_5df2b6e5be2d6",
                            "label": "Section Padding Bottom",
                            "name": "section_padding_bottom",
                            "type": "radio",
                            "instructions": "",
                            "required": 0,
                            "conditional_logic": 0,
                            "wrapper": {
                                "width": "50",
                                "class": "",
                                "id": ""
                            },
                            "choices": {
                                "none": "None (0px)",
                                "small": "Small (50px)",
                                "medium": "Medium (100px)",
                                "large": "Large (150px)",
                                "xlarge": "xLarge (200px)",
                                "xxlarge": "xxLarge (250px)"
                            },
                            "allow_null": 0,
                            "other_choice": 1,
                            "save_other_choice": 1,
                            "default_value": "",
                            "layout": "vertical",
                            "return_format": "value"
                        },
                        {
                            "key": "field_5df2b6e5be2d7",
                            "label": "Section Label",
                            "name": "layout_title",
                            "type": "text",
                            "instructions": "",
                            "required": 0,
                            "conditional_logic": 0,
                            "wrapper": {
                                "width": "",
                                "class": "",
                                "id": ""
                            },
                            "default_value": "",
                            "placeholder": "",
                            "prepend": "",
                            "append": "",
                            "maxlength": ""
                        },
                        {
                            "key": "field_5df2b6e5be2d8",
                            "label": "Align Middle",
                            "name": "align_middle",
                            "type": "true_false",
                            "instructions": "",
                            "required": 0,
                            "conditional_logic": 0,
                            "wrapper": {
                                "width": "",
                                "class": "",
                                "id": ""
                            },
                            "message": "Vertically align all content in this module?",
                            "default_value": 0,
                            "ui": 0,
                            "ui_on_text": "",
                            "ui_off_text": ""
                        }
                    ],
                    "min": "",
                    "max": ""
                },
                "layout_5dc4a95fcd990": {
                    "key": "layout_5dc4a95fcd990",
                    "name": "fullwidth_content",
                    "label": "Fullwidth Content",
                    "display": "block",
                    "sub_fields": [
                        {
                            "key": "field_5dc4a969cd991",
                            "label": "Content",
                            "name": "content",
                            "type": "wysiwyg",
                            "instructions": "",
                            "required": 0,
                            "conditional_logic": 0,
                            "wrapper": {
                                "width": "",
                                "class": "",
                                "id": ""
                            },
                            "default_value": "",
                            "tabs": "all",
                            "toolbar": "full",
                            "media_upload": 1,
                            "delay": 0
                        },
                        {
                            "key": "field_5dd806eccecb8",
                            "label": "Section Padding Top",
                            "name": "section_padding_top",
                            "type": "radio",
                            "instructions": "",
                            "required": 0,
                            "conditional_logic": 0,
                            "wrapper": {
                                "width": "50",
                                "class": "",
                                "id": ""
                            },
                            "choices": {
                                "none": "None (0px)",
                                "small": "Small (50px)",
                                "medium": "Medium (100px)",
                                "large": "Large (150px)",
                                "xlarge": "xLarge (200px)",
                                "xxlarge": "xxLarge (250px)"
                            },
                            "allow_null": 1,
                            "other_choice": 1,
                            "save_other_choice": 0,
                            "default_value": "",
                            "layout": "vertical",
                            "return_format": "value"
                        },
                        {
                            "key": "field_5dd5cf47d5314",
                            "label": "Section Padding Bottom",
                            "name": "section_padding_bottom",
                            "type": "radio",
                            "instructions": "",
                            "required": 0,
                            "conditional_logic": 0,
                            "wrapper": {
                                "width": "50",
                                "class": "",
                                "id": ""
                            },
                            "choices": {
                                "none": "None (0px)",
                                "small": "Small (50px)",
                                "medium": "Medium (100px)",
                                "large": "Large (150px)",
                                "xlarge": "xLarge (200px)",
                                "xxlarge": "xxLarge (250px)"
                            },
                            "allow_null": 0,
                            "other_choice": 0,
                            "default_value": "",
                            "layout": "vertical",
                            "return_format": "value",
                            "save_other_choice": 0
                        }
                    ],
                    "min": "",
                    "max": ""
                },
                "layout_5dc365aa67735": {
                    "key": "layout_5dc365aa67735",
                    "name": "subpage_hero",
                    "label": "Subpage Hero",
                    "display": "block",
                    "sub_fields": [
                        {
                            "key": "field_5dc365aa67736",
                            "label": "Hero Image",
                            "name": "hero_image",
                            "type": "image",
                            "instructions": "",
                            "required": 0,
                            "conditional_logic": 0,
                            "wrapper": {
                                "width": "",
                                "class": "",
                                "id": ""
                            },
                            "return_format": "array",
                            "preview_size": "medium",
                            "library": "all",
                            "min_width": "",
                            "min_height": "",
                            "min_size": "",
                            "max_width": "",
                            "max_height": "",
                            "max_size": "",
                            "mime_types": ""
                        },
                        {
                            "key": "field_5dc365aa67737",
                            "label": "Logo",
                            "name": "logo",
                            "type": "image",
                            "instructions": "Upload a logo to appear in the center.",
                            "required": 0,
                            "conditional_logic": 0,
                            "wrapper": {
                                "width": "",
                                "class": "",
                                "id": ""
                            },
                            "return_format": "array",
                            "preview_size": "medium",
                            "library": "all",
                            "min_width": "",
                            "min_height": "",
                            "min_size": "",
                            "max_width": "",
                            "max_height": "",
                            "max_size": "",
                            "mime_types": ""
                        },
                        {
                            "key": "field_5dc365aa67738",
                            "label": "Logo Text 1",
                            "name": "logo_text_1",
                            "type": "text",
                            "instructions": "",
                            "required": 0,
                            "conditional_logic": 0,
                            "wrapper": {
                                "width": "",
                                "class": "",
                                "id": ""
                            },
                            "default_value": "",
                            "placeholder": "",
                            "prepend": "",
                            "append": "",
                            "maxlength": ""
                        },
                        {
                            "key": "field_5dc365aa67739",
                            "label": "Logo Text 2",
                            "name": "logo_text_2",
                            "type": "text",
                            "instructions": "",
                            "required": 0,
                            "conditional_logic": 0,
                            "wrapper": {
                                "width": "",
                                "class": "",
                                "id": ""
                            },
                            "default_value": "",
                            "placeholder": "",
                            "prepend": "",
                            "append": "",
                            "maxlength": ""
                        },
                        {
                            "key": "field_5dc365aa6773a",
                            "label": "Logo Tagline",
                            "name": "logo_tagline",
                            "type": "text",
                            "instructions": "Enter a tagline to appear directly beneath the logo.",
                            "required": 0,
                            "conditional_logic": 0,
                            "wrapper": {
                                "width": "",
                                "class": "",
                                "id": ""
                            },
                            "default_value": "",
                            "placeholder": "",
                            "prepend": "",
                            "append": "",
                            "maxlength": ""
                        },
                        {
                            "key": "field_5dc365aa6773b",
                            "label": "Banner Headline",
                            "name": "banner_headline",
                            "type": "text",
                            "instructions": "Enter large banner text here.",
                            "required": 0,
                            "conditional_logic": 0,
                            "wrapper": {
                                "width": "",
                                "class": "",
                                "id": ""
                            },
                            "default_value": "",
                            "placeholder": "",
                            "prepend": "",
                            "append": "",
                            "maxlength": ""
                        },
                        {
                            "key": "field_5dc365aa6773c",
                            "label": "Section Label",
                            "name": "layout_title",
                            "type": "text",
                            "instructions": "",
                            "required": 0,
                            "conditional_logic": 0,
                            "wrapper": {
                                "width": "",
                                "class": "",
                                "id": ""
                            },
                            "default_value": "",
                            "placeholder": "",
                            "prepend": "",
                            "append": "",
                            "maxlength": ""
                        }
                    ],
                    "min": "",
                    "max": ""
                },
                "layout_5dbb3dca28629": {
                    "key": "layout_5dbb3dca28629",
                    "name": "images_and_copy",
                    "label": "Images and Copy (Left Copy)",
                    "display": "block",
                    "sub_fields": [
                        {
                            "key": "field_5dbb3dca2862a",
                            "label": "Title",
                            "name": "title",
                            "type": "text",
                            "instructions": "",
                            "required": 0,
                            "conditional_logic": 0,
                            "wrapper": {
                                "width": "",
                                "class": "",
                                "id": ""
                            },
                            "default_value": "",
                            "placeholder": "",
                            "prepend": "",
                            "append": "",
                            "maxlength": ""
                        },
                        {
                            "key": "field_5dbb3dca2862b",
                            "label": "Copy",
                            "name": "copy",
                            "type": "wysiwyg",
                            "instructions": "",
                            "required": 0,
                            "conditional_logic": 0,
                            "wrapper": {
                                "width": "",
                                "class": "",
                                "id": ""
                            },
                            "default_value": "",
                            "tabs": "all",
                            "toolbar": "full",
                            "media_upload": 1,
                            "delay": 0
                        },
                        {
                            "key": "field_5dbb3dca2862e",
                            "label": "Image",
                            "name": "image",
                            "type": "image",
                            "instructions": "",
                            "required": 0,
                            "conditional_logic": 0,
                            "wrapper": {
                                "width": "",
                                "class": "",
                                "id": ""
                            },
                            "return_format": "array",
                            "preview_size": "medium",
                            "library": "all",
                            "min_width": "",
                            "min_height": "",
                            "min_size": "",
                            "max_width": "",
                            "max_height": "",
                            "max_size": "",
                            "mime_types": ""
                        },
                        {
                            "key": "field_5dd46c90cb35e",
                            "label": "Section Padding Top",
                            "name": "section_padding_top",
                            "type": "radio",
                            "instructions": "",
                            "required": 0,
                            "conditional_logic": 0,
                            "wrapper": {
                                "width": "50",
                                "class": "",
                                "id": ""
                            },
                            "choices": {
                                "none": "None (0px)",
                                "small": "Small (50px)",
                                "medium": "Medium (100px)",
                                "large": "Large (150px)",
                                "xlarge": "xLarge (200px)",
                                "xxlarge": "xxLarge (250px)"
                            },
                            "allow_null": 0,
                            "other_choice": 1,
                            "save_other_choice": 1,
                            "default_value": "",
                            "layout": "vertical",
                            "return_format": "value"
                        },
                        {
                            "key": "field_5dd46e6a64f77",
                            "label": "Section Padding Bottom",
                            "name": "section_padding_bottom",
                            "type": "radio",
                            "instructions": "",
                            "required": 0,
                            "conditional_logic": 0,
                            "wrapper": {
                                "width": "50",
                                "class": "",
                                "id": ""
                            },
                            "choices": {
                                "none": "None (0px)",
                                "small": "Small (50px)",
                                "medium": "Medium (100px)",
                                "large": "Large (150px)",
                                "xlarge": "xLarge (200px)",
                                "xxlarge": "xxLarge (250px)"
                            },
                            "allow_null": 0,
                            "other_choice": 1,
                            "save_other_choice": 1,
                            "default_value": "",
                            "layout": "vertical",
                            "return_format": "value"
                        },
                        {
                            "key": "field_5dbb3dca28630",
                            "label": "Section Label",
                            "name": "layout_title",
                            "type": "text",
                            "instructions": "",
                            "required": 0,
                            "conditional_logic": 0,
                            "wrapper": {
                                "width": "",
                                "class": "",
                                "id": ""
                            },
                            "default_value": "",
                            "placeholder": "",
                            "prepend": "",
                            "append": "",
                            "maxlength": ""
                        },
                        {
                            "key": "field_5dd81a6d553c4",
                            "label": "Align Middle",
                            "name": "align_middle",
                            "type": "true_false",
                            "instructions": "",
                            "required": 0,
                            "conditional_logic": 0,
                            "wrapper": {
                                "width": "",
                                "class": "",
                                "id": ""
                            },
                            "message": "Vertically align all content in this module?",
                            "default_value": 0,
                            "ui": 0,
                            "ui_on_text": "",
                            "ui_off_text": ""
                        }
                    ],
                    "min": "",
                    "max": ""
                },
                "layout_5dc3472e3569b": {
                    "key": "layout_5dc3472e3569b",
                    "name": "images_and_copy_reversed",
                    "label": "Images and Copy (Right Copy)",
                    "display": "block",
                    "sub_fields": [
                        {
                            "key": "field_5dc3472e3569c",
                            "label": "Title",
                            "name": "title",
                            "type": "text",
                            "instructions": "",
                            "required": 0,
                            "conditional_logic": 0,
                            "wrapper": {
                                "width": "",
                                "class": "",
                                "id": ""
                            },
                            "default_value": "",
                            "placeholder": "",
                            "prepend": "",
                            "append": "",
                            "maxlength": ""
                        },
                        {
                            "key": "field_5dc3472e3569d",
                            "label": "Copy",
                            "name": "copy",
                            "type": "wysiwyg",
                            "instructions": "",
                            "required": 0,
                            "conditional_logic": 0,
                            "wrapper": {
                                "width": "",
                                "class": "",
                                "id": ""
                            },
                            "default_value": "",
                            "tabs": "all",
                            "toolbar": "full",
                            "media_upload": 1,
                            "delay": 0
                        },
                        {
                            "key": "field_5dc3472e3569e",
                            "label": "Image",
                            "name": "image",
                            "type": "image",
                            "instructions": "",
                            "required": 0,
                            "conditional_logic": 0,
                            "wrapper": {
                                "width": "",
                                "class": "",
                                "id": ""
                            },
                            "return_format": "array",
                            "preview_size": "medium",
                            "library": "all",
                            "min_width": "",
                            "min_height": "",
                            "min_size": "",
                            "max_width": "",
                            "max_height": "",
                            "max_size": "",
                            "mime_types": ""
                        },
                        {
                            "key": "field_5dc3472e356a0",
                            "label": "Section Label",
                            "name": "layout_title",
                            "type": "text",
                            "instructions": "",
                            "required": 0,
                            "conditional_logic": 0,
                            "wrapper": {
                                "width": "",
                                "class": "",
                                "id": ""
                            },
                            "default_value": "",
                            "placeholder": "",
                            "prepend": "",
                            "append": "",
                            "maxlength": ""
                        },
                        {
                            "key": "field_5dd46e904fef5",
                            "label": "Section Padding Top",
                            "name": "section_padding_top",
                            "type": "radio",
                            "instructions": "",
                            "required": 0,
                            "conditional_logic": 0,
                            "wrapper": {
                                "width": "50",
                                "class": "",
                                "id": ""
                            },
                            "choices": {
                                "none": "None (0px)",
                                "small": "Small (50px)",
                                "medium": "Medium (100px)",
                                "large": "Large (150px)",
                                "xlarge": "xLarge (200px)",
                                "xxlarge": "xxLarge (250px)"
                            },
                            "allow_null": 1,
                            "other_choice": 1,
                            "save_other_choice": 0,
                            "default_value": "",
                            "layout": "vertical",
                            "return_format": "value"
                        },
                        {
                            "key": "field_5dd46e8b4fef4",
                            "label": "Section Padding Bottom",
                            "name": "section_padding_bottom",
                            "type": "radio",
                            "instructions": "",
                            "required": 0,
                            "conditional_logic": 0,
                            "wrapper": {
                                "width": "50",
                                "class": "",
                                "id": ""
                            },
                            "choices": {
                                "none": "None (0px)",
                                "small": "Small (50px)",
                                "medium": "Medium (100px)",
                                "large": "Large (150px)",
                                "xlarge": "xLarge (200px)",
                                "xxlarge": "xxLarge (250px)"
                            },
                            "allow_null": 1,
                            "other_choice": 1,
                            "save_other_choice": 0,
                            "default_value": "",
                            "layout": "vertical",
                            "return_format": "value"
                        },
                        {
                            "key": "field_5dd81c70e4e04",
                            "label": "Align Middle",
                            "name": "align_middle",
                            "type": "true_false",
                            "instructions": "",
                            "required": 0,
                            "conditional_logic": 0,
                            "wrapper": {
                                "width": "",
                                "class": "",
                                "id": ""
                            },
                            "message": "Vertically align all content in this module?",
                            "default_value": 0,
                            "ui": 0,
                            "ui_on_text": "",
                            "ui_off_text": ""
                        }
                    ],
                    "min": "",
                    "max": ""
                },
                "layout_5da0bb76815b1": {
                    "key": "layout_5da0bb76815b1",
                    "name": "horizontal_divider",
                    "label": "Horizontal Divider",
                    "display": "block",
                    "sub_fields": [
                        {
                            "key": "field_5da0f4a0ad00c",
                            "label": "Expanded Grid",
                            "name": "expanded_grid",
                            "type": "true_false",
                            "instructions": "",
                            "required": 0,
                            "conditional_logic": 0,
                            "wrapper": {
                                "width": "33",
                                "class": "",
                                "id": ""
                            },
                            "message": "Check here to expand the width of this section",
                            "default_value": 1,
                            "ui": 0,
                            "ui_on_text": "",
                            "ui_off_text": ""
                        },
                        {
                            "key": "field_5da0bb76815b4",
                            "label": "Section Label",
                            "name": "layout_title",
                            "type": "text",
                            "instructions": "",
                            "required": 0,
                            "conditional_logic": 0,
                            "wrapper": {
                                "width": "",
                                "class": "",
                                "id": ""
                            },
                            "default_value": "",
                            "placeholder": "",
                            "prepend": "",
                            "append": "",
                            "maxlength": ""
                        }
                    ],
                    "min": "",
                    "max": ""
                },
                "layout_5d9cc79eddd43": {
                    "key": "layout_5d9cc79eddd43",
                    "name": "hero_image_with_copy",
                    "label": "Subpage Hero",
                    "display": "block",
                    "sub_fields": [
                        {
                            "key": "field_5d9ccf3292eef",
                            "label": "Background Color",
                            "name": "bg_color",
                            "type": "color_picker",
                            "instructions": "Choose a background color for this entire section.",
                            "required": 0,
                            "conditional_logic": 0,
                            "wrapper": {
                                "width": "",
                                "class": "",
                                "id": ""
                            },
                            "default_value": ""
                        },
                        {
                            "key": "field_5d9cc79eddd44",
                            "label": "Hero Image",
                            "name": "hero_image",
                            "type": "image",
                            "instructions": "",
                            "required": 0,
                            "conditional_logic": 0,
                            "wrapper": {
                                "width": "",
                                "class": "",
                                "id": ""
                            },
                            "return_format": "array",
                            "preview_size": "medium",
                            "library": "all",
                            "min_width": "",
                            "min_height": "",
                            "min_size": "",
                            "max_width": "",
                            "max_height": "",
                            "max_size": "",
                            "mime_types": ""
                        },
                        {
                            "key": "field_5d9cc79eddd45",
                            "label": "Copy",
                            "name": "copy",
                            "type": "wysiwyg",
                            "instructions": "",
                            "required": 0,
                            "conditional_logic": 0,
                            "wrapper": {
                                "width": "",
                                "class": "",
                                "id": ""
                            },
                            "default_value": "",
                            "tabs": "all",
                            "toolbar": "full",
                            "media_upload": 0,
                            "delay": 0
                        },
                        {
                            "key": "field_5d9cc9894b33c",
                            "label": "Scroll Indicator",
                            "name": "scroll_indicator",
                            "type": "true_false",
                            "instructions": "",
                            "required": 0,
                            "conditional_logic": 0,
                            "wrapper": {
                                "width": "33",
                                "class": "",
                                "id": ""
                            },
                            "message": "Show scroll indicator?",
                            "default_value": 1,
                            "ui": 0,
                            "ui_on_text": "",
                            "ui_off_text": ""
                        },
                        {
                            "key": "field_5d9e1bf20cfb6",
                            "label": "Switch Columns?",
                            "name": "switch_columns",
                            "type": "true_false",
                            "instructions": "",
                            "required": 0,
                            "conditional_logic": 0,
                            "wrapper": {
                                "width": "33",
                                "class": "",
                                "id": ""
                            },
                            "message": "Check here to switch left and right columns",
                            "default_value": 0,
                            "ui": 0,
                            "ui_on_text": "",
                            "ui_off_text": ""
                        },
                        {
                            "key": "field_5d9e27840662e",
                            "label": "Expanded Grid",
                            "name": "expanded_grid",
                            "type": "true_false",
                            "instructions": "",
                            "required": 0,
                            "conditional_logic": 0,
                            "wrapper": {
                                "width": "33",
                                "class": "",
                                "id": ""
                            },
                            "message": "Check here to expand the width of this section",
                            "default_value": 1,
                            "ui": 0,
                            "ui_on_text": "",
                            "ui_off_text": ""
                        },
                        {
                            "key": "field_5d9cd7d6e79a9",
                            "label": "Section Label",
                            "name": "layout_title",
                            "type": "text",
                            "instructions": "",
                            "required": 0,
                            "conditional_logic": 0,
                            "wrapper": {
                                "width": "",
                                "class": "",
                                "id": ""
                            },
                            "default_value": "",
                            "placeholder": "",
                            "prepend": "",
                            "append": "",
                            "maxlength": ""
                        }
                    ],
                    "min": "",
                    "max": ""
                },
                "layout_5d9fc8dafca00": {
                    "key": "layout_5d9fc8dafca00",
                    "name": "map_with_content",
                    "label": "Map with Content",
                    "display": "block",
                    "sub_fields": [
                        {
                            "key": "field_5d9fc8dafca01",
                            "label": "Background Color",
                            "name": "bg_color",
                            "type": "color_picker",
                            "instructions": "Choose a background color for this entire section.",
                            "required": 0,
                            "conditional_logic": 0,
                            "wrapper": {
                                "width": "",
                                "class": "",
                                "id": ""
                            },
                            "default_value": ""
                        },
                        {
                            "key": "field_5d9fc8dafca02",
                            "label": "Google Map",
                            "name": "google_map",
                            "type": "wysiwyg",
                            "instructions": "",
                            "required": 0,
                            "conditional_logic": 0,
                            "wrapper": {
                                "width": "",
                                "class": "",
                                "id": ""
                            },
                            "default_value": "",
                            "tabs": "all",
                            "toolbar": "full",
                            "media_upload": 1,
                            "delay": 0
                        },
                        {
                            "key": "field_5d9fc8dafca03",
                            "label": "Copy",
                            "name": "copy",
                            "type": "wysiwyg",
                            "instructions": "",
                            "required": 0,
                            "conditional_logic": 0,
                            "wrapper": {
                                "width": "",
                                "class": "",
                                "id": ""
                            },
                            "default_value": "",
                            "tabs": "all",
                            "toolbar": "full",
                            "media_upload": 0,
                            "delay": 0
                        },
                        {
                            "key": "field_5d9fc8dafca04",
                            "label": "Scroll Indicator",
                            "name": "scroll_indicator",
                            "type": "true_false",
                            "instructions": "",
                            "required": 0,
                            "conditional_logic": 0,
                            "wrapper": {
                                "width": "33",
                                "class": "",
                                "id": ""
                            },
                            "message": "Show scroll indicator?",
                            "default_value": 1,
                            "ui": 0,
                            "ui_on_text": "",
                            "ui_off_text": ""
                        },
                        {
                            "key": "field_5d9fc8dafca05",
                            "label": "Switch Columns?",
                            "name": "switch_columns",
                            "type": "true_false",
                            "instructions": "",
                            "required": 0,
                            "conditional_logic": 0,
                            "wrapper": {
                                "width": "33",
                                "class": "",
                                "id": ""
                            },
                            "message": "Check here to switch left and right columns",
                            "default_value": 0,
                            "ui": 0,
                            "ui_on_text": "",
                            "ui_off_text": ""
                        },
                        {
                            "key": "field_5d9fc8dafca06",
                            "label": "Expanded Grid",
                            "name": "expanded_grid",
                            "type": "true_false",
                            "instructions": "",
                            "required": 0,
                            "conditional_logic": 0,
                            "wrapper": {
                                "width": "33",
                                "class": "",
                                "id": ""
                            },
                            "message": "Check here to expand the width of this section",
                            "default_value": 1,
                            "ui": 0,
                            "ui_on_text": "",
                            "ui_off_text": ""
                        },
                        {
                            "key": "field_5dd5cbe3a83fe",
                            "label": "Section Padding Top",
                            "name": "section_padding_top",
                            "type": "radio",
                            "instructions": "",
                            "required": 0,
                            "conditional_logic": 0,
                            "wrapper": {
                                "width": "50",
                                "class": "",
                                "id": ""
                            },
                            "choices": {
                                "none": "None (0px)",
                                "small": "Small (50px)",
                                "medium": "Medium (100px)",
                                "large": "Large (150px)",
                                "xlarge": "xLarge (200px)",
                                "xxlarge": "xxLarge (250px)"
                            },
                            "allow_null": 0,
                            "other_choice": 1,
                            "save_other_choice": 1,
                            "default_value": "",
                            "layout": "vertical",
                            "return_format": "value"
                        },
                        {
                            "key": "field_5dd5cc14a8400",
                            "label": "Section Padding Bottom",
                            "name": "section_padding_bottom",
                            "type": "radio",
                            "instructions": "",
                            "required": 0,
                            "conditional_logic": 0,
                            "wrapper": {
                                "width": "50",
                                "class": "",
                                "id": ""
                            },
                            "choices": {
                                "none": "None (0px)",
                                "small": "Small (50px)",
                                "medium": "Medium (100px)",
                                "large": "Large (150px)",
                                "xlarge": "xLarge (200px)",
                                "xxlarge": "xxLarge (250px)"
                            },
                            "allow_null": 1,
                            "other_choice": 1,
                            "save_other_choice": 0,
                            "default_value": "",
                            "layout": "vertical",
                            "return_format": "value"
                        },
                        {
                            "key": "field_5d9fc8dafca07",
                            "label": "Section Label",
                            "name": "layout_title",
                            "type": "text",
                            "instructions": "",
                            "required": 0,
                            "conditional_logic": 0,
                            "wrapper": {
                                "width": "",
                                "class": "",
                                "id": ""
                            },
                            "default_value": "",
                            "placeholder": "",
                            "prepend": "",
                            "append": "",
                            "maxlength": ""
                        }
                    ],
                    "min": "",
                    "max": ""
                },
                "layout_5da975773edf1": {
                    "key": "layout_5da975773edf1",
                    "name": "tagline",
                    "label": "Tagline",
                    "display": "block",
                    "sub_fields": [
                        {
                            "key": "field_5da975843edf2",
                            "label": "Background Color",
                            "name": "bg_color",
                            "type": "color_picker",
                            "instructions": "",
                            "required": 0,
                            "conditional_logic": 0,
                            "wrapper": {
                                "width": "",
                                "class": "",
                                "id": ""
                            },
                            "default_value": ""
                        },
                        {
                            "key": "field_5da975ab3edf3",
                            "label": "Tagline",
                            "name": "tagline",
                            "type": "text",
                            "instructions": "",
                            "required": 0,
                            "conditional_logic": 0,
                            "wrapper": {
                                "width": "",
                                "class": "",
                                "id": ""
                            },
                            "default_value": "",
                            "placeholder": "",
                            "prepend": "",
                            "append": "",
                            "maxlength": ""
                        },
                        {
                            "key": "field_5df2750a13f1d",
                            "label": "Description",
                            "name": "description",
                            "type": "textarea",
                            "instructions": "",
                            "required": 0,
                            "conditional_logic": 0,
                            "wrapper": {
                                "width": "",
                                "class": "",
                                "id": ""
                            },
                            "default_value": "",
                            "placeholder": "",
                            "maxlength": "",
                            "rows": "",
                            "new_lines": ""
                        },
                        {
                            "key": "field_5da975bb3edf4",
                            "label": "Section Label",
                            "name": "layout_title",
                            "type": "text",
                            "instructions": "",
                            "required": 0,
                            "conditional_logic": 0,
                            "wrapper": {
                                "width": "",
                                "class": "",
                                "id": ""
                            },
                            "default_value": "",
                            "placeholder": "",
                            "prepend": "",
                            "append": "",
                            "maxlength": ""
                        }
                    ],
                    "min": "",
                    "max": ""
                },
                "layout_5d9e32819363f": {
                    "key": "layout_5d9e32819363f",
                    "name": "call_to_action",
                    "label": "Call-To-Action",
                    "display": "block",
                    "sub_fields": [
                        {
                            "key": "field_5d9e328d93640",
                            "label": "Headline",
                            "name": "headline",
                            "type": "wysiwyg",
                            "instructions": "",
                            "required": 0,
                            "conditional_logic": 0,
                            "wrapper": {
                                "width": "33",
                                "class": "",
                                "id": ""
                            },
                            "default_value": "",
                            "tabs": "all",
                            "toolbar": "full",
                            "media_upload": 1,
                            "delay": 0
                        },
                        {
                            "key": "field_5d9e32a693641",
                            "label": "Button Link",
                            "name": "button_link",
                            "type": "link",
                            "instructions": "",
                            "required": 0,
                            "conditional_logic": 0,
                            "wrapper": {
                                "width": "33",
                                "class": "",
                                "id": ""
                            },
                            "return_format": "array"
                        },
                        {
                            "key": "field_5d9e32bf93642",
                            "label": "Button Text",
                            "name": "button_text",
                            "type": "text",
                            "instructions": "",
                            "required": 0,
                            "conditional_logic": 0,
                            "wrapper": {
                                "width": "33",
                                "class": "",
                                "id": ""
                            },
                            "default_value": "",
                            "placeholder": "",
                            "prepend": "",
                            "append": "",
                            "maxlength": ""
                        },
                        {
                            "key": "field_5d9e334e5aaac",
                            "label": "Section Label",
                            "name": "layout_title",
                            "type": "text",
                            "instructions": "",
                            "required": 0,
                            "conditional_logic": 0,
                            "wrapper": {
                                "width": "",
                                "class": "",
                                "id": ""
                            },
                            "default_value": "",
                            "placeholder": "",
                            "prepend": "",
                            "append": "",
                            "maxlength": ""
                        }
                    ],
                    "min": "",
                    "max": ""
                },
                "layout_5d9b8aeca5af6": {
                    "key": "layout_5d9b8aeca5af6",
                    "name": "schedule_tour",
                    "label": "Schedule Tour",
                    "display": "block",
                    "sub_fields": [
                        {
                            "key": "field_5dc34a32ef792",
                            "label": "Background Color",
                            "name": "bg_color",
                            "type": "color_picker",
                            "instructions": "",
                            "required": 0,
                            "conditional_logic": 0,
                            "wrapper": {
                                "width": "",
                                "class": "",
                                "id": ""
                            },
                            "default_value": ""
                        },
                        {
                            "key": "field_5d9b8af4a5af7",
                            "label": "Title",
                            "name": "title",
                            "type": "text",
                            "instructions": "",
                            "required": 0,
                            "conditional_logic": 0,
                            "wrapper": {
                                "width": "",
                                "class": "",
                                "id": ""
                            },
                            "default_value": "",
                            "placeholder": "",
                            "prepend": "",
                            "append": "",
                            "maxlength": ""
                        },
                        {
                            "key": "field_5d9b8b27a5af8",
                            "label": "Copy",
                            "name": "copy",
                            "type": "wysiwyg",
                            "instructions": "",
                            "required": 0,
                            "conditional_logic": 0,
                            "wrapper": {
                                "width": "",
                                "class": "",
                                "id": ""
                            },
                            "default_value": "",
                            "tabs": "all",
                            "toolbar": "full",
                            "media_upload": 1,
                            "delay": 0
                        },
                        {
                            "key": "field_5d9b8b33a5af9",
                            "label": "Form ID",
                            "name": "form_id",
                            "type": "text",
                            "instructions": "",
                            "required": 0,
                            "conditional_logic": 0,
                            "wrapper": {
                                "width": "",
                                "class": "",
                                "id": ""
                            },
                            "default_value": "",
                            "placeholder": "",
                            "prepend": "",
                            "append": "",
                            "maxlength": ""
                        },
                        {
                            "key": "field_5d9cd8538fec1",
                            "label": "Section Label",
                            "name": "layout_title",
                            "type": "text",
                            "instructions": "",
                            "required": 0,
                            "conditional_logic": 0,
                            "wrapper": {
                                "width": "",
                                "class": "",
                                "id": ""
                            },
                            "default_value": "",
                            "placeholder": "",
                            "prepend": "",
                            "append": "",
                            "maxlength": ""
                        },
                        {
                            "key": "field_5dd5c9db8a537",
                            "label": "Section Padding Top",
                            "name": "section_padding_top",
                            "type": "radio",
                            "instructions": "",
                            "required": 0,
                            "conditional_logic": 0,
                            "wrapper": {
                                "width": "50",
                                "class": "",
                                "id": ""
                            },
                            "choices": {
                                "none": "None (0px)",
                                "small": "Small (50px)",
                                "medium": "Medium (100px)",
                                "large": "Large (150px)",
                                "xlarge": "xLarge (200px)",
                                "xxlarge": "xxLarge (250px)"
                            },
                            "allow_null": 0,
                            "other_choice": 0,
                            "default_value": "",
                            "layout": "vertical",
                            "return_format": "value",
                            "save_other_choice": 0
                        },
                        {
                            "key": "field_5dd5c9df8a538",
                            "label": "Section Padding Bottom",
                            "name": "section_padding_bottom",
                            "type": "radio",
                            "instructions": "",
                            "required": 0,
                            "conditional_logic": 0,
                            "wrapper": {
                                "width": "50",
                                "class": "",
                                "id": ""
                            },
                            "choices": {
                                "none": "None (0px)",
                                "small": "Small (50px)",
                                "medium": "Medium (100px)",
                                "large": "Large (150px)",
                                "xlarge": "xLarge (200px)",
                                "xxlarge": "xxLarge (250px)"
                            },
                            "allow_null": 0,
                            "other_choice": 0,
                            "default_value": "",
                            "layout": "vertical",
                            "return_format": "value",
                            "save_other_choice": 0
                        }
                    ],
                    "min": "",
                    "max": ""
                },
                "layout_5da88ce710684": {
                    "key": "layout_5da88ce710684",
                    "name": "google_map",
                    "label": "Google Map",
                    "display": "block",
                    "sub_fields": [
                        {
                            "key": "field_5e18add07f6ec",
                            "label": "Tabs",
                            "name": "tabs",
                            "type": "repeater",
                            "instructions": "",
                            "required": 0,
                            "conditional_logic": 0,
                            "wrapper": {
                                "width": "",
                                "class": "",
                                "id": ""
                            },
                            "collapsed": "",
                            "min": 0,
                            "max": 0,
                            "layout": "table",
                            "button_label": "",
                            "sub_fields": [
                                {
                                    "key": "field_5e18adeb7f6ed",
                                    "label": "Tab Name",
                                    "name": "tab_name",
                                    "type": "text",
                                    "instructions": "",
                                    "required": 0,
                                    "conditional_logic": 0,
                                    "wrapper": {
                                        "width": "",
                                        "class": "",
                                        "id": ""
                                    },
                                    "default_value": "",
                                    "placeholder": "",
                                    "prepend": "",
                                    "append": "",
                                    "maxlength": ""
                                }
                            ]
                        },
                        {
                            "key": "field_5e18ae3c09e51",
                            "label": "Locations",
                            "name": "locations",
                            "type": "repeater",
                            "instructions": "",
                            "required": 0,
                            "conditional_logic": 0,
                            "wrapper": {
                                "width": "100",
                                "class": "",
                                "id": ""
                            },
                            "collapsed": "",
                            "min": 0,
                            "max": 0,
                            "layout": "block",
                            "button_label": "+ Add Location",
                            "sub_fields": [
                                {
                                    "key": "field_5e18ae5009e52",
                                    "label": "Title",
                                    "name": "title",
                                    "type": "text",
                                    "instructions": "",
                                    "required": 0,
                                    "conditional_logic": 0,
                                    "wrapper": {
                                        "width": "",
                                        "class": "",
                                        "id": ""
                                    },
                                    "default_value": "",
                                    "placeholder": "",
                                    "prepend": "",
                                    "append": "",
                                    "maxlength": ""
                                },
                                {
                                    "key": "field_5e18ae5809e53",
                                    "label": "Description",
                                    "name": "description",
                                    "type": "text",
                                    "instructions": "",
                                    "required": 0,
                                    "conditional_logic": 0,
                                    "wrapper": {
                                        "width": "",
                                        "class": "",
                                        "id": ""
                                    },
                                    "default_value": "",
                                    "placeholder": "",
                                    "prepend": "",
                                    "append": "",
                                    "maxlength": ""
                                },
                                {
                                    "key": "field_5e18ae78c1079",
                                    "label": "Icon",
                                    "name": "icon",
                                    "type": "image",
                                    "instructions": "",
                                    "required": 0,
                                    "conditional_logic": 0,
                                    "wrapper": {
                                        "width": "",
                                        "class": "",
                                        "id": ""
                                    },
                                    "return_format": "array",
                                    "preview_size": "medium",
                                    "library": "all",
                                    "min_width": "",
                                    "min_height": "",
                                    "min_size": "",
                                    "max_width": "",
                                    "max_height": "",
                                    "max_size": "",
                                    "mime_types": ""
                                },
                                {
                                    "key": "field_5e18ae8fc107a",
                                    "label": "Location",
                                    "name": "location",
                                    "type": "google_map",
                                    "instructions": "",
                                    "required": 0,
                                    "conditional_logic": 0,
                                    "wrapper": {
                                        "width": "",
                                        "class": "",
                                        "id": ""
                                    },
                                    "center_lat": "",
                                    "center_lng": "",
                                    "zoom": 16,
                                    "height": 150
                                }
                            ]
                        },
                        {
                            "key": "field_5da899c7d2563",
                            "label": "Expanded Grid",
                            "name": "expanded_grid",
                            "type": "true_false",
                            "instructions": "",
                            "required": 0,
                            "conditional_logic": 0,
                            "wrapper": {
                                "width": "50",
                                "class": "",
                                "id": ""
                            },
                            "message": "Check here to expand the width of this section",
                            "default_value": 1,
                            "ui": 0,
                            "ui_on_text": "",
                            "ui_off_text": ""
                        },
                        {
                            "key": "field_5da8995b8e8bb",
                            "label": "Switch Columns?",
                            "name": "switch_columns",
                            "type": "true_false",
                            "instructions": "",
                            "required": 0,
                            "conditional_logic": 0,
                            "wrapper": {
                                "width": "50",
                                "class": "",
                                "id": ""
                            },
                            "message": "Check here to switch left and right columns",
                            "default_value": 0,
                            "ui": 0,
                            "ui_on_text": "",
                            "ui_off_text": ""
                        },
                        {
                            "key": "field_5da88ce71068a",
                            "label": "Section Label",
                            "name": "layout_title",
                            "type": "text",
                            "instructions": "",
                            "required": 0,
                            "conditional_logic": 0,
                            "wrapper": {
                                "width": "",
                                "class": "",
                                "id": ""
                            },
                            "default_value": "",
                            "placeholder": "",
                            "prepend": "",
                            "append": "",
                            "maxlength": ""
                        },
                        {
                            "key": "field_5dd82186770e1",
                            "label": "Section Padding Top",
                            "name": "section_padding_top",
                            "type": "radio",
                            "instructions": "",
                            "required": 0,
                            "conditional_logic": 0,
                            "wrapper": {
                                "width": "50",
                                "class": "",
                                "id": ""
                            },
                            "choices": {
                                "none": "None (0px)",
                                "small": "Small (50px)",
                                "medium": "Medium (100px)",
                                "large": "Large (150px)",
                                "xlarge": "xLarge (200px)",
                                "xxlarge": "xxLarge (250px)"
                            },
                            "allow_null": 0,
                            "other_choice": 0,
                            "default_value": "",
                            "layout": "vertical",
                            "return_format": "value",
                            "save_other_choice": 0
                        },
                        {
                            "key": "field_5dd821a3770e2",
                            "label": "Section Padding Bottom",
                            "name": "section_padding_bottom",
                            "type": "radio",
                            "instructions": "",
                            "required": 0,
                            "conditional_logic": 0,
                            "wrapper": {
                                "width": "50",
                                "class": "",
                                "id": ""
                            },
                            "choices": {
                                "none": "None (0px)",
                                "small": "Small (50px)",
                                "medium": "Medium (100px)",
                                "large": "Large (150px)",
                                "xlarge": "xLarge (200px)",
                                "xxlarge": "xxLarge (250px)"
                            },
                            "allow_null": 0,
                            "other_choice": 1,
                            "save_other_choice": 1,
                            "default_value": "",
                            "layout": "vertical",
                            "return_format": "value"
                        }
                    ],
                    "min": "",
                    "max": ""
                },
                "layout_5dd5ce9d736ab": {
                    "key": "layout_5dd5ce9d736ab",
                    "name": "google_map_static",
                    "label": "Google Map Static",
                    "display": "block",
                    "sub_fields": [
                        {
                            "key": "field_5dd5ce9d736b5",
                            "label": "Section Label",
                            "name": "layout_title",
                            "type": "text",
                            "instructions": "",
                            "required": 0,
                            "conditional_logic": 0,
                            "wrapper": {
                                "width": "",
                                "class": "",
                                "id": ""
                            },
                            "default_value": "",
                            "placeholder": "",
                            "prepend": "",
                            "append": "",
                            "maxlength": ""
                        },
                        {
                            "key": "field_5dd5cf49d5315",
                            "label": "Section Padding Top",
                            "name": "section_padding_top",
                            "type": "radio",
                            "instructions": "",
                            "required": 0,
                            "conditional_logic": 0,
                            "wrapper": {
                                "width": "50",
                                "class": "",
                                "id": ""
                            },
                            "choices": {
                                "none": "None (0px)",
                                "small": "Small (50px)",
                                "medium": "Medium (100px)",
                                "large": "Large (150px)",
                                "xlarge": "xLarge (200px)",
                                "xxlarge": "xxLarge (250px)"
                            },
                            "allow_null": 0,
                            "other_choice": 0,
                            "default_value": "",
                            "layout": "vertical",
                            "return_format": "value",
                            "save_other_choice": 0
                        },
                        {
                            "key": "field_5dd5cbeaa83ff",
                            "label": "Section Padding Bottom",
                            "name": "section_padding_bottom",
                            "type": "radio",
                            "instructions": "",
                            "required": 0,
                            "conditional_logic": 0,
                            "wrapper": {
                                "width": "50",
                                "class": "",
                                "id": ""
                            },
                            "choices": {
                                "none": "None (0px)",
                                "small": "Small (50px)",
                                "medium": "Medium (100px)",
                                "large": "Large (150px)",
                                "xlarge": "xLarge (200px)",
                                "xxlarge": "xxLarge (250px)"
                            },
                            "allow_null": 0,
                            "other_choice": 1,
                            "save_other_choice": 1,
                            "default_value": "",
                            "layout": "vertical",
                            "return_format": "value"
                        }
                    ],
                    "min": "",
                    "max": ""
                }
            },
            "button_label": "+ Add New Module",
            "min": "",
            "max": ""
        }
    ],
    "location": [
        [
            {
                "param": "post_type",
                "operator": "==",
                "value": "page"
            }
        ]
    ],
    "menu_order": -1,
    "position": "normal",
    "style": "seamless",
    "label_placement": "top",
    "instruction_placement": "label",
    "hide_on_screen": [
        "permalink",
        "the_content",
        "excerpt",
        "discussion",
        "comments",
        "revisions",
        "slug",
        "author",
        "format",
        "page_attributes",
        "featured_image",
        "categories",
        "tags",
        "send-trackbacks"
    ],
    "active": 1,
    "description": "",
    "modified": 1578677450
}