{
    "key": "group_5faebd60e2c2b",
    "title": "Attachment Video",
    "fields": [
        {
            "key": "field_5faebdd89ffee",
            "label": "Video Link",
            "name": "video_link",
            "type": "url",
            "instructions": "",
            "required": 0,
            "conditional_logic": 0,
            "wrapper": {
                "width": "",
                "class": "",
                "id": ""
            },
            "default_value": "",
            "placeholder": "https:\/\/vimeo.com\/########"
        }
    ],
    "location": [
        [
            {
                "param": "attachment",
                "operator": "==",
                "value": "image"
            }
        ]
    ],
    "menu_order": 0,
    "position": "normal",
    "style": "default",
    "label_placement": "top",
    "instruction_placement": "label",
    "hide_on_screen": "",
    "active": 1,
    "description": "",
    "modified": 1605287428
}